…
``` r
scaled_false_alarms_df$pred <- predict(model_FA_resp_time_rfx, type = "response")
scaled_false_alarms_df
```

    ## # A tibble: 1,865 x 6
    ##    trial id     image_index resp_time is_false_alarm_given_response  pred
    ##    <int> <chr>        <dbl>     <dbl>                         <int> <dbl>
    ##  1   117 CSN001         941    0.0325                             0 0.632
    ##  2   357 CSN001        3505    0.0991                             1 0.650
    ##  3   426 CSN001        2139    0.118                              1 0.655
    ##  4   523 CSN001        2880    0.145                              1 0.662
    ##  5   739 CSN001        2932    0.205                              1 0.678
    ##  6   823 CSN001         929    0.229                              0 0.684
    ##  7   846 CSN001        2799    0.235                              1 0.685
    ##  8  1029 CSN001         551    0.286                              0 0.698
    ##  9  1225 CSN001         436    0.340                              1 0.711
    ## 10  1630 CSN001        2639    0.453                              0 0.738
    ## # … with 1,855 more rows

## Playground (in progress)

``` r
combined_hits_df %>%
  mutate(first_half_of_task = as.integer(signal_time < 1800))
```

    ## # A tibble: 1,800 x 8
    ##    trial id     image_index signal_time hit_time reaction_time is_hit_given_signal
    ##    <int> <chr>        <dbl>       <dbl>    <dbl>         <dbl>               <int>
    ##  1    81 CSN001         801        80.1      NA         NA                       0
    ##  2   117 CSN001         941       116.      117.         0.918                   1
    ##  3   119 CSN001        3131       118.       NA         NA                       0
    ##  4   211 CSN001        1325       210.       NA         NA                       0
    ##  5   235 CSN001         752       234.       NA         NA                       0
    ##  6   361 CSN001         103       360.       NA         NA                       0
    ##  7   461 CSN001        2804       460.       NA         NA                       0
    ##  8   591 CSN001          28       590.       NA         NA                       0
    ##  9   823 CSN001         929       822.      823.         0.710                   1
    ## 10   845 CSN001         517       844.      846.         1.86                    1
    ## # … with 1,790 more rows, and 1 more variable: first_half_of_task <int>
